sname,saddress,sclass,sphone,saction
Kendal,7 Schlimgen Hill,1,338-910-6669,true
Barron,1578 Redwing Pass,2,719-271-3826,true
Nichols,963 Lakeland Hill,3,885-885-4638,false
Josepha,2015 Fordem Junction,4,208-766-7677,true
Xylia,9821 Goodland Plaza,5,496-150-4570,true
Lindy,0507 Artisan Road,6,416-147-2729,true
Shelby,9 Roxbury Center,7,227-205-8438,false
Barnabas,5 Buhler Court,8,717-663-4343,true
Maje,24 Lunder Park,9,937-100-0476,true
Shaw,17414 Pleasure Center,10,539-180-1033,false
Aristotle,83 Ronald Regan Plaza,11,506-835-5790,true
Ally,5 West Place,12,584-605-7643,false
Kati,8 Coleman Point,13,855-948-2296,true
Aundrea,90 Reindahl Plaza,14,242-834-9072,false
Arthur,51728 Lake View Lane,15,452-764-3434,true
Felice,140 Pond Hill,16,322-946-1527,false
Ryley,1436 Old Gate Alley,17,760-172-5674,false
Nate,2443 Brown Alley,18,950-836-4735,true
Luce,3663 Mosinee Center,19,352-389-9584,true
Augustine,1 Crescent Oaks Trail,20,916-286-1790,true
Sybil,0 Eliot Crossing,21,873-635-5924,true
Neila,27 Mcguire Drive,22,268-194-0987,true
Hirsch,487 Independence Parkway,23,222-882-9342,true
Gerianne,837 Oriole Avenue,24,134-189-7321,false
Sharai,9094 Kennedy Alley,25,668-460-7319,false
Emilee,91639 Buell Street,26,563-909-7605,true
Osbourne,317 Sutteridge Drive,27,864-818-7550,true
Tonya,5 Blackbird Court,28,160-815-6302,true
Trude,1 Sauthoff Park,29,747-231-8174,true
Yvette,7 Butterfield Plaza,30,522-940-8560,false
Deina,8371 Heath Alley,31,389-258-0025,true
Consuela,09 Marcy Lane,32,364-940-8001,false
Gale,71136 Hooker Court,33,545-523-2484,false
Eadith,89 Fieldstone Park,34,938-303-0252,false
Tallie,922 Sutherland Court,35,435-399-2259,false
Leigh,4 Bowman Street,36,857-621-7759,false
Meade,4 Lien Way,37,775-646-3501,false
Dion,3412 Summer Ridge Junction,38,756-878-5959,false
Kristien,8 Old Shore Street,39,773-575-5456,false
Cathie,815 Scoville Terrace,40,203-387-1834,true
Korella,8 Maple Wood Point,41,765-214-3423,false
Cory,46907 Utah Trail,42,356-919-2514,false
Salomi,6 Mallory Lane,43,391-212-3675,false
Stormy,120 Doe Crossing Parkway,44,664-627-5065,true
Rollie,31 Grover Lane,45,101-464-6490,false
Heywood,838 Shelley Point,46,330-677-7803,false
Nanon,7636 Jenna Parkway,47,549-434-2804,false
Corrinne,8 Pleasure Crossing,48,864-365-0030,false
Rossy,084 Loftsgordon Circle,49,428-848-1400,false
Bianka,9054 Grasskamp Pass,50,825-804-9119,false
Bernice,4 Lien Parkway,51,805-645-7560,false
Concordia,05 Debs Center,52,871-613-1685,true
Cloris,8 Hermina Plaza,53,886-240-5215,true
Merrilee,56661 Fair Oaks Trail,54,605-320-6159,true
Adrienne,2 Helena Road,55,503-564-4003,true
Tilly,22 Bunting Crossing,56,500-192-8776,true
Garvey,9 Grayhawk Terrace,57,386-124-8697,false
Raymond,93823 Memorial Terrace,58,472-111-0345,false
Pierce,93657 Spaight Crossing,59,883-893-2431,true
Lorrie,9 Monica Circle,60,534-229-5827,true
Nanine,949 Coleman Drive,61,426-289-5641,true
Candy,27 Hansons Circle,62,963-548-1578,false
Hanson,43 Graceland Pass,63,213-788-8222,true
Josy,9373 Clemons Alley,64,757-734-2268,true
Karlee,65846 Dorton Center,65,385-583-0534,true
Nichole,38043 Anthes Place,66,526-344-5630,false
Cad,966 Texas Park,67,865-964-9227,true
Forest,95 Farmco Hill,68,131-627-4488,false
Lauree,69793 2nd Pass,69,515-368-6378,true
Reese,17626 Brentwood Crossing,70,848-944-8680,true
Dalis,79 Springview Court,71,991-508-9925,true
Free,5 Pennsylvania Alley,72,525-105-9284,true
Lane,0 Petterle Avenue,73,402-313-3847,false
Clemmie,7477 Prairieview Drive,74,994-195-4975,true
Shela,3 Rusk Junction,75,296-350-1958,true
Fredericka,6 Hallows Way,76,267-143-9940,false
Odilia,501 Scoville Place,77,699-406-5496,false
Doralia,9 Nova Plaza,78,754-120-5066,true
Sly,99 Straubel Way,79,665-807-1611,true
Xever,239 East Road,80,109-515-8498,false
Maureen,75516 Ridgeview Drive,81,697-911-9638,true
Tailor,68739 Del Mar Point,82,255-389-9208,false
Lola,65892 Summer Ridge Center,83,202-903-3476,true
Letta,09387 Buena Vista Way,84,976-144-9736,true
Forest,89568 Moulton Drive,85,928-182-0907,false
Mae,2 Larry Avenue,86,962-764-9132,false
Sadella,0 Crescent Oaks Hill,87,497-411-5283,true
Faustina,0 Vermont Avenue,88,580-349-7048,false
Dottie,774 Sheridan Park,89,263-191-0238,false
Tildy,71286 Dakota Parkway,90,204-927-4190,false
Allyce,9 Fairview Plaza,91,972-878-3926,true
Adrian,170 Bartelt Terrace,92,992-822-4873,true
Brynna,46 Del Mar Trail,93,983-807-5976,false
Oriana,2 Iowa Junction,94,836-801-6332,true
Joyce,757 Anzinger Court,95,125-561-8324,false
Roze,041 American Terrace,96,262-717-5809,false
Augie,1 Bashford Drive,97,312-161-0732,true
Jerrie,9429 Elgar Park,98,882-772-7244,true
Dita,61074 Lawn Terrace,99,522-420-1891,false
Shay,6 Carberry Avenue,100,735-843-4273,true
